UART_Working_v3/UART_Working_v3.sim/sim_1/behav/xsim/simulate.log
Time resolution is 1 ps
Test 0 ok  op=000 M=2 K=2 N=2 D=1
Test 1 ok  op=001 M=1 K=1 N=1 D=1
Test 2 ok  op=010 M=2 K=2 N=2 D=1
Test 3 ok  op=011 M=2 K=2 N=2 D=1
Test 4 ok  op=100 M=2 K=3 N=3 D=1
Test 5 ok  op=101 M=2 K=2 N=2 D=1
Test 6 ok  op=000 M=2 K=2 N=2 D=1
Test 7 ok  op=011 M=2 K=2 N=4 D=1
Test 8 ok  op=100 M=4 K=1 N=3 D=1
Test 9 ok  op=101 M=2 K=4 N=4 D=1
Test 10 ok  op=010 M=1 K=2 N=1 D=1
Test 11 ok  op=011 M=3 K=1 N=4 D=1
Test 12 ok  op=000 M=1 K=3 N=3 D=1
Test 13 ok  op=000 M=3 K=1 N=4 D=1
Test 14 ok  op=010 M=1 K=1 N=1 D=1
Test 15 ok  op=100 M=3 K=4 N=2 D=1
Test 16 ok  op=010 M=1 K=1 N=4 D=1
Test 17 ok  op=001 M=2 K=2 N=1 D=1
Test 18 ok  op=101 M=4 K=4 N=1 D=1
Test 19 ok  op=000 M=4 K=1 N=4 D=1
Test 20 ok  op=000 M=1 K=1 N=4 D=1
Test 21 ok  op=011 M=4 K=2 N=1 D=1
Test 22 ok  op=010 M=2 K=4 N=2 D=1
Test 23 ok  op=000 M=4 K=2 N=3 D=1
Test 24 ok  op=001 M=3 K=2 N=4 D=1
Test 25 ok  op=101 M=2 K=1 N=3 D=1
Test 26 ok  op=001 M=2 K=2 N=3 D=1
Test 27 ok  op=100 M=4 K=3 N=2 D=1
Test 28 ok  op=000 M=3 K=3 N=1 D=1
Test 29 ok  op=101 M=4 K=1 N=3 D=1
Test 30 ok  op=000 M=3 K=3 N=1 D=1
Test 31 ok  op=010 M=3 K=1 N=2 D=1
Test 32 ok  op=011 M=4 K=3 N=4 D=1
Test 33 ok  op=000 M=1 K=3 N=4 D=1
Test 34 ok  op=010 M=4 K=4 N=2 D=1
Test 35 ok  op=011 M=3 K=3 N=3 D=1
Test 36 ok  op=100 M=1 K=2 N=2 D=1
Test 37 ok  op=001 M=4 K=3 N=3 D=1
Test 38 ok  op=000 M=2 K=4 N=1 D=1
Test 39 ok  op=000 M=2 K=4 N=3 D=1
Test 40 ok  op=101 M=1 K=3 N=3 D=1
Test 41 ok  op=011 M=3 K=2 N=1 D=1
Test 42 ok  op=000 M=1 K=4 N=2 D=1
Test 43 ok  op=010 M=2 K=4 N=4 D=1
Test 44 ok  op=010 M=1 K=1 N=2 D=1
Test 45 ok  op=010 M=3 K=4 N=4 D=1
Test 46 ok  op=100 M=3 K=4 N=2 D=1
Test 47 ok  op=100 M=1 K=1 N=4 D=1
Test 48 ok  op=011 M=4 K=2 N=4 D=1
Test 49 ok  op=001 M=1 K=1 N=4 D=1
Test 50 ok  op=100 M=1 K=2 N=3 D=1
Test 51 ok  op=010 M=1 K=1 N=3 D=1
Test 52 ok  op=010 M=3 K=1 N=3 D=1
Test 53 ok  op=101 M=4 K=2 N=3 D=1
Test 54 ok  op=100 M=1 K=2 N=1 D=1
Test 55 ok  op=100 M=4 K=4 N=1 D=1
Test 56 ok  op=000 M=4 K=4 N=4 D=1
Test 57 ok  op=001 M=4 K=1 N=2 D=1
Test 58 ok  op=000 M=1 K=3 N=4 D=1
Test 59 ok  op=010 M=4 K=2 N=3 D=1
Test 60 ok  op=000 M=3 K=4 N=2 D=1
Test 61 ok  op=101 M=3 K=4 N=2 D=1
Test 62 ok  op=011 M=2 K=4 N=4 D=1
Test 63 ok  op=011 M=3 K=3 N=3 D=1
Test 64 ok  op=000 M=1 K=2 N=2 D=1
Test 65 ok  op=011 M=4 K=3 N=3 D=1
Test 66 ok  op=101 M=4 K=1 N=1 D=1
Test 67 ok  op=101 M=2 K=4 N=2 D=1
Test 68 ok  op=011 M=4 K=3 N=3 D=1
Test 69 ok  op=000 M=4 K=1 N=4 D=1
Test 70 ok  op=101 M=1 K=2 N=4 D=1
Test 71 ok  op=101 M=3 K=1 N=4 D=1
Test 72 ok  op=101 M=4 K=2 N=4 D=1
Test 73 ok  op=011 M=2 K=1 N=1 D=1
Test 74 ok  op=100 M=3 K=4 N=4 D=1
Test 75 ok  op=010 M=1 K=1 N=1 D=1
Test 76 ok  op=011 M=2 K=1 N=3 D=1
Test 77 ok  op=100 M=1 K=1 N=4 D=1
Test 78 ok  op=001 M=4 K=2 N=4 D=1
Test 79 ok  op=001 M=3 K=1 N=2 D=1
Test 80 ok  op=011 M=2 K=3 N=4 D=1
Test 81 ok  op=100 M=1 K=2 N=2 D=1
Test 82 ok  op=101 M=2 K=3 N=2 D=1
Test 83 ok  op=100 M=4 K=1 N=3 D=1
Test 84 ok  op=001 M=4 K=2 N=4 D=1
Test 85 ok  op=000 M=4 K=3 N=2 D=1
Test 86 ok  op=000 M=3 K=3 N=1 D=1
Test 87 ok  op=001 M=4 K=1 N=3 D=1
Test 88 ok  op=000 M=2 K=4 N=2 D=1
Test 89 ok  op=101 M=4 K=3 N=4 D=1
Test 90 ok  op=010 M=1 K=1 N=3 D=1
Test 91 ok  op=010 M=1 K=4 N=2 D=1
Test 92 ok  op=100 M=2 K=1 N=2 D=1
Test 93 ok  op=001 M=2 K=1 N=4 D=1
Test 94 ok  op=011 M=3 K=2 N=1 D=1
Test 95 ok  op=011 M=4 K=3 N=2 D=1
Test 96 ok  op=010 M=2 K=1 N=3 D=1
Test 97 ok  op=000 M=4 K=3 N=1 D=1
Test 98 ok  op=010 M=1 K=2 N=4 D=1
Test 99 ok  op=100 M=2 K=2 N=1 D=1
Test 100 ok  op=101 M=3 K=4 N=1 D=1
Test 101 ok  op=001 M=4 K=3 N=2 D=1
Test 102 ok  op=011 M=2 K=1 N=2 D=1
Test 103 ok  op=000 M=4 K=2 N=3 D=1
Test 104 ok  op=101 M=1 K=3 N=4 D=1
Test 105 ok  op=001 M=1 K=2 N=3 D=1
Test 106 ok  op=100 M=1 K=2 N=1 D=1
Test 107 ok  op=011 M=4 K=4 N=1 D=1
Test 108 ok  op=100 M=3 K=1 N=4 D=1
Test 109 ok  op=000 M=1 K=1 N=1 D=1
Test 110 ok  op=010 M=3 K=4 N=2 D=1
Test 111 ok  op=100 M=3 K=4 N=3 D=1
Test 112 ok  op=101 M=4 K=4 N=1 D=1
Test 113 ok  op=010 M=4 K=1 N=4 D=1
Test 114 ok  op=010 M=4 K=3 N=1 D=1
Test 115 ok  op=001 M=1 K=4 N=1 D=1
Test 116 ok  op=101 M=3 K=3 N=3 D=1
Test 117 ok  op=100 M=3 K=4 N=1 D=1
Test 118 ok  op=010 M=2 K=4 N=2 D=1
Test 119 ok  op=011 M=2 K=2 N=3 D=1
Test 120 ok  op=010 M=2 K=1 N=3 D=1
Test 121 ok  op=010 M=2 K=2 N=1 D=1
Test 122 ok  op=010 M=4 K=3 N=3 D=1
Test 123 ok  op=010 M=1 K=3 N=4 D=1
Test 124 ok  op=101 M=4 K=2 N=1 D=1
Test 125 ok  op=010 M=2 K=3 N=3 D=1
Test 126 ok  op=100 M=1 K=2 N=4 D=1
Test 127 ok  op=010 M=3 K=3 N=4 D=1
Test 128 ok  op=101 M=2 K=1 N=3 D=1
Test 129 ok  op=101 M=2 K=3 N=3 D=1
Test 130 ok  op=011 M=4 K=3 N=3 D=1
Test 131 ok  op=010 M=3 K=1 N=1 D=1
Test 132 ok  op=100 M=1 K=3 N=3 D=1
Test 133 ok  op=100 M=3 K=1 N=1 D=1
Test 134 ok  op=001 M=1 K=4 N=4 D=1
Test 135 ok  op=001 M=4 K=1 N=1 D=1
Test 136 ok  op=001 M=1 K=1 N=2 D=1
Test 137 ok  op=011 M=3 K=4 N=1 D=1
Test 138 ok  op=000 M=2 K=2 N=1 D=1
Test 139 ok  op=011 M=1 K=3 N=3 D=1
Test 140 ok  op=101 M=4 K=4 N=4 D=1
Test 141 ok  op=011 M=4 K=1 N=4 D=1
Test 142 ok  op=010 M=2 K=1 N=3 D=1
Test 143 ok  op=001 M=1 K=3 N=1 D=1
Test 144 ok  op=011 M=3 K=3 N=1 D=1
Test 145 ok  op=100 M=1 K=4 N=2 D=1
Test 146 ok  op=010 M=2 K=3 N=3 D=1
Test 147 ok  op=100 M=3 K=4 N=2 D=1
Test 148 ok  op=100 M=1 K=4 N=1 D=1
Test 149 ok  op=011 M=1 K=4 N=1 D=1
Test 150 ok  op=100 M=4 K=4 N=2 D=1
Test 151 ok  op=001 M=1 K=4 N=1 D=1
Test 152 ok  op=011 M=3 K=3 N=3 D=1
Test 153 ok  op=010 M=1 K=2 N=2 D=1
Test 154 ok  op=101 M=4 K=2 N=4 D=1
Test 155 ok  op=011 M=2 K=2 N=3 D=1
Test 156 ok  op=010 M=2 K=1 N=3 D=1
Test 157 ok  op=100 M=2 K=2 N=1 D=1
Test 158 ok  op=000 M=3 K=3 N=1 D=1
Test 159 ok  op=001 M=4 K=1 N=3 D=1
Test 160 ok  op=010 M=2 K=4 N=2 D=1
Test 161 ok  op=000 M=4 K=4 N=3 D=1
Test 162 ok  op=101 M=4 K=1 N=3 D=1
Test 163 ok  op=001 M=2 K=1 N=3 D=1
Test 164 ok  op=101 M=3 K=1 N=4 D=1
Test 165 ok  op=001 M=4 K=2 N=4 D=1
Test 166 ok  op=101 M=1 K=1 N=2 D=1
Test 167 ok  op=101 M=1 K=4 N=4 D=1
Test 168 ok  op=001 M=3 K=1 N=1 D=1
Test 169 ok  op=101 M=4 K=4 N=2 D=1
Test 170 ok  op=011 M=3 K=4 N=3 D=1
Test 171 ok  op=001 M=3 K=4 N=3 D=1
Test 172 ok  op=000 M=1 K=1 N=1 D=1
Test 173 ok  op=011 M=4 K=4 N=1 D=1
Test 174 ok  op=000 M=4 K=4 N=3 D=1
Test 175 ok  op=001 M=1 K=3 N=1 D=1
Test 176 ok  op=001 M=3 K=3 N=1 D=1
Test 177 ok  op=001 M=4 K=2 N=3 D=1
Test 178 ok  op=010 M=4 K=1 N=2 D=1
Test 179 ok  op=001 M=1 K=4 N=2 D=1
Test 180 ok  op=001 M=4 K=1 N=1 D=1
Test 181 ok  op=100 M=4 K=1 N=2 D=1
Test 182 ok  op=000 M=2 K=2 N=2 D=1
Test 183 ok  op=010 M=4 K=3 N=1 D=1
Test 184 ok  op=001 M=1 K=4 N=1 D=1
Test 185 ok  op=011 M=3 K=3 N=3 D=1
Test 186 ok  op=100 M=1 K=2 N=2 D=1
Test 187 ok  op=101 M=4 K=4 N=4 D=1
Test 188 ok  op=100 M=3 K=2 N=2 D=1
Test 189 ok  op=000 M=4 K=3 N=2 D=1
Test 190 ok  op=000 M=3 K=3 N=1 D=1
Test 191 ok  op=011 M=4 K=1 N=3 D=1
Test 192 ok  op=000 M=4 K=2 N=3 D=1
Test 193 ok  op=011 M=2 K=4 N=3 D=1
Test 194 ok  op=101 M=2 K=3 N=3 D=1
Test 195 ok  op=001 M=1 K=3 N=1 D=1
Test 196 ok  op=010 M=4 K=1 N=2 D=1
Test 197 ok  op=101 M=1 K=4 N=4 D=1
Test 198 ok  op=101 M=2 K=3 N=1 D=1
Test 199 ok  op=000 M=3 K=3 N=2 D=1
Test 200 ok  op=100 M=3 K=1 N=1 D=1
Test 201 ok  op=000 M=2 K=2 N=1 D=1
Test 202 ok  op=010 M=3 K=3 N=2 D=1
Test 203 ok  op=101 M=1 K=4 N=4 D=1
Test 204 ok  op=001 M=3 K=1 N=1 D=1
Test 205 ok  op=011 M=4 K=4 N=2 D=1
Test 206 ok  op=011 M=3 K=4 N=1 D=1
Test 207 ok  op=000 M=2 K=2 N=2 D=2
Test 208 ok  op=001 M=2 K=2 N=2 D=2
Test 209 ok  op=000 M=1 K=1 N=1 D=3
Test 210 ok  op=011 M=2 K=2 N=2 D=4
Test 211 ok  op=100 M=2 K=3 N=3 D=2
Test 212 ok  op=101 M=2 K=2 N=2 D=2
Test 213 ok  op=010 M=2 K=2 N=2 D=3
Test 214 ok  op=000 M=2 K=2 N=1 D=4
Test 215 ok  op=001 M=4 K=2 N=3 D=2
Test 216 ok  op=000 M=1 K=3 N=1 D=4
Test 217 ok  op=100 M=1 K=3 N=2 D=4
Test 218 ok  op=000 M=4 K=1 N=4 D=2
Test 219 ok  op=011 M=4 K=2 N=1 D=2
Test 220 ok  op=000 M=3 K=2 N=4 D=3
Test 221 ok  op=101 M=4 K=2 N=1 D=4
Test 222 ok  op=000 M=4 K=1 N=2 D=3
Test 223 ok  op=010 M=2 K=3 N=1 D=2
Test 224 ok  op=010 M=2 K=4 N=2 D=4
Test 225 ok  op=010 M=4 K=2 N=3 D=4
Test 226 ok  op=001 M=1 K=1 N=2 D=3
Test 227 ok  op=000 M=3 K=2 N=1 D=2
Test 228 ok  op=100 M=1 K=4 N=3 D=4
Test 229 ok  op=100 M=1 K=1 N=1 D=3
Test 230 ok  op=011 M=4 K=4 N=1 D=2
Test 231 ok  op=100 M=3 K=3 N=3 D=4
Test 232 ok  op=011 M=4 K=1 N=4 D=2
Test 233 ok  op=000 M=4 K=1 N=2 D=2
Test 234 ok  op=000 M=4 K=3 N=4 D=3
Test 235 ok  op=001 M=4 K=1 N=2 D=4
Test 236 ok  op=010 M=2 K=3 N=3 D=3
Test 237 ok  op=010 M=3 K=4 N=3 D=2
Test 238 ok  op=011 M=3 K=3 N=4 D=3
Test 239 ok  op=101 M=2 K=1 N=1 D=3
Test 240 ok  op=100 M=3 K=4 N=3 D=3
Test 241 ok  op=100 M=3 K=1 N=4 D=2
Test 242 ok  op=100 M=1 K=2 N=2 D=3
Test 243 ok  op=101 M=2 K=3 N=4 D=2
Test 244 ok  op=000 M=4 K=1 N=4 D=3
Test 245 ok  op=011 M=3 K=1 N=2 D=4
Test 246 ok  op=000 M=3 K=1 N=2 D=3
Test 247 ok  op=011 M=1 K=3 N=2 D=3
Test 248 ok  op=000 M=4 K=1 N=2 D=3
Test 249 ok  op=000 M=2 K=3 N=1 D=4
Test 250 ok  op=100 M=4 K=3 N=4 D=3
Test 251 ok  op=001 M=4 K=2 N=3 D=2
Test 252 ok  op=000 M=2 K=1 N=4 D=4
Test 253 ok  op=011 M=1 K=4 N=4 D=4
Test 254 ok  op=001 M=3 K=3 N=4 D=3
Test 255 ok  op=001 M=3 K=3 N=1 D=2
Test 256 ok  op=101 M=1 K=1 N=3 D=4
Test 257 ok  op=001 M=3 K=4 N=1 D=2
Test 258 ok  op=101 M=4 K=1 N=3 D=3
Test 259 ok  op=101 M=1 K=3 N=1 D=4
Test 260 ok  op=010 M=3 K=1 N=3 D=3
Test 261 ok  op=101 M=4 K=4 N=4 D=2
Test 262 ok  op=000 M=3 K=1 N=4 D=2
Test 263 ok  op=011 M=4 K=4 N=1 D=4
Test 264 ok  op=001 M=3 K=3 N=3 D=4
Test 265 ok  op=100 M=3 K=2 N=1 D=3
Test 266 ok  op=000 M=4 K=4 N=4 D=4
Test 267 ok  op=001 M=4 K=4 N=1 D=4
Test 268 ok  op=010 M=2 K=1 N=3 D=4
Test 269 ok  op=010 M=1 K=1 N=1 D=4
Test 270 ok  op=000 M=2 K=2 N=2 D=4
Test 271 ok  op=101 M=3 K=2 N=4 D=2
Test 272 ok  op=101 M=1 K=3 N=2 D=2
Test 273 ok  op=001 M=2 K=2 N=3 D=3
Test 274 ok  op=000 M=1 K=3 N=4 D=3
Test 275 ok  op=011 M=3 K=3 N=3 D=4
Test 276 ok  op=010 M=4 K=2 N=4 D=3
Test 277 ok  op=010 M=3 K=4 N=4 D=4
Test 278 ok  op=101 M=1 K=1 N=3 D=4
Test 279 ok  op=001 M=3 K=4 N=1 D=4
Test 280 ok  op=000 M=1 K=4 N=1 D=3
Test 281 ok  op=101 M=1 K=3 N=1 D=4
Test 282 ok  op=100 M=3 K=1 N=3 D=4
Test 283 ok  op=100 M=4 K=3 N=4 D=3
Test 284 ok  op=101 M=4 K=1 N=2 D=3
Test 285 ok  op=011 M=3 K=4 N=3 D=4
Test 286 ok  op=101 M=2 K=1 N=3 D=2
Test 287 ok  op=100 M=1 K=4 N=2 D=4
Test 288 ok  op=100 M=2 K=4 N=4 D=3
Test 289 ok  op=000 M=1 K=2 N=1 D=4
Test 290 ok  op=000 M=3 K=4 N=1 D=3
Test 291 ok  op=011 M=1 K=3 N=1 D=3
Test 292 ok  op=000 M=1 K=1 N=3 D=4
Test 293 ok  op=001 M=3 K=4 N=2 D=2
Test 294 ok  op=011 M=1 K=2 N=4 D=2
Test 295 ok  op=001 M=1 K=3 N=1 D=2
Test 296 ok  op=101 M=2 K=1 N=4 D=2
Test 297 ok  op=011 M=4 K=1 N=3 D=3
Test 298 ok  op=100 M=2 K=1 N=3 D=2
Test 299 ok  op=010 M=2 K=3 N=1 D=3
Test 300 ok  op=101 M=3 K=1 N=4 D=3
Test 301 ok  op=101 M=3 K=3 N=3 D=3
Test 302 ok  op=000 M=1 K=3 N=1 D=4
Test 303 ok  op=010 M=2 K=3 N=3 D=3
Test 304 ok  op=101 M=3 K=3 N=3 D=3
Test 305 ok  op=010 M=1 K=1 N=2 D=3
Test 306 ok  op=010 M=2 K=2 N=4 D=3
Test 307 ok  op=010 M=3 K=1 N=4 D=2
Test 308 ok  op=000 M=4 K=2 N=3 D=4
Test 309 ok  op=010 M=4 K=1 N=4 D=4
Test 310 ok  op=100 M=3 K=1 N=4 D=2
Test 311 ok  op=101 M=4 K=4 N=1 D=2
Test 312 ok  op=100 M=4 K=1 N=3 D=2
Test 313 ok  op=010 M=3 K=3 N=1 D=2
Test 314 ok  op=000 M=4 K=3 N=4 D=3
Test 315 ok  op=100 M=2 K=2 N=2 D=2
Test 316 ok  op=011 M=3 K=3 N=2 D=2
Test 317 ok  op=010 M=4 K=1 N=1 D=4
Test 318 ok  op=000 M=1 K=4 N=1 D=3
Test 319 ok  op=001 M=3 K=3 N=1 D=2
Test 320 ok  op=101 M=4 K=1 N=2 D=3
Test 321 ok  op=011 M=3 K=1 N=4 D=2
Test 322 ok  op=001 M=4 K=2 N=3 D=4
Test 323 ok  op=001 M=4 K=2 N=4 D=2
Test 324 ok  op=001 M=4 K=3 N=1 D=3
Test 325 ok  op=101 M=1 K=4 N=4 D=3
Test 326 ok  op=010 M=4 K=3 N=3 D=4
Test 327 ok  op=100 M=3 K=4 N=4 D=3
Test 328 ok  op=010 M=1 K=4 N=2 D=2
Test 329 ok  op=011 M=4 K=1 N=4 D=4
Test 330 ok  op=101 M=4 K=1 N=1 D=2
Test 331 ok  op=011 M=1 K=2 N=3 D=3
Test 332 ok  op=100 M=3 K=1 N=3 D=3
Test 333 ok  op=001 M=2 K=3 N=2 D=3
Test 334 ok  op=100 M=2 K=1 N=3 D=3
Test 335 ok  op=000 M=4 K=1 N=2 D=2
Test 336 ok  op=010 M=4 K=2 N=2 D=4
Test 337 ok  op=000 M=3 K=3 N=3 D=2
Test 338 ok  op=010 M=2 K=4 N=4 D=3
Test 339 ok  op=000 M=2 K=2 N=1 D=2
Test 340 ok  op=000 M=4 K=3 N=1 D=4
Test 341 ok  op=100 M=4 K=3 N=3 D=2
Test 342 ok  op=011 M=1 K=2 N=1 D=2
Test 343 ok  op=011 M=4 K=4 N=1 D=4
Test 344 ok  op=101 M=1 K=1 N=3 D=2
Test 345 ok  op=000 M=3 K=4 N=3 D=3
Test 346 ok  op=000 M=3 K=2 N=4 D=4
Test 347 ok  op=100 M=2 K=2 N=3 D=3
Test 348 ok  op=000 M=3 K=3 N=1 D=3
Test 349 ok  op=101 M=4 K=4 N=4 D=3
Test 350 ok  op=101 M=1 K=4 N=2 D=3
Test 351 ok  op=001 M=1 K=3 N=2 D=3
Test 352 ok  op=010 M=4 K=2 N=4 D=2
Test 353 ok  op=100 M=1 K=1 N=2 D=4
Test 354 ok  op=010 M=3 K=4 N=3 D=4
Test 355 ok  op=100 M=2 K=1 N=3 D=4
Test 356 ok  op=010 M=4 K=2 N=3 D=4
Test 357 ok  op=001 M=1 K=3 N=2 D=4
Test 358 ok  op=101 M=3 K=2 N=4 D=2
Test 359 ok  op=011 M=1 K=3 N=2 D=4
Test 360 ok  op=001 M=3 K=1 N=4 D=4
Test 361 ok  op=100 M=3 K=4 N=1 D=4
Test 362 ok  op=011 M=1 K=1 N=2 D=4
Test 363 ok  op=011 M=3 K=1 N=1 D=4
Test 364 ok  op=101 M=2 K=1 N=1 D=3
Test 365 ok  op=101 M=1 K=2 N=2 D=3
Test 366 ok  op=000 M=3 K=4 N=4 D=3
Test 367 ok  op=010 M=3 K=1 N=1 D=3
Test 368 ok  op=100 M=3 K=4 N=3 D=3
Test 369 ok  op=010 M=3 K=2 N=4 D=2
Test 370 ok  op=011 M=4 K=1 N=4 D=4
Test 371 ok  op=001 M=3 K=4 N=2 D=2
Test 372 ok  op=000 M=4 K=2 N=3 D=2
Test 373 ok  op=010 M=2 K=4 N=4 D=3
Test 374 ok  op=100 M=2 K=2 N=1 D=3
Test 375 ok  op=001 M=4 K=4 N=4 D=3
Test 376 ok  op=000 M=3 K=4 N=1 D=2
Test 377 ok  op=001 M=1 K=1 N=1 D=2
Test 378 ok  op=100 M=3 K=1 N=1 D=2
Test 379 ok  op=000 M=3 K=4 N=3 D=3
Test 380 ok  op=000 M=3 K=2 N=4 D=3
Test 381 ok  op=011 M=4 K=2 N=1 D=2
Test 382 ok  op=001 M=1 K=3 N=4 D=4
Test 383 ok  op=011 M=4 K=4 N=1 D=2
Test 384 ok  op=000 M=3 K=1 N=3 D=2
Test 385 ok  op=101 M=4 K=4 N=2 D=2
Test 386 ok  op=101 M=2 K=4 N=3 D=2
Test 387 ok  op=000 M=1 K=3 N=2 D=2
Test 388 ok  op=011 M=1 K=2 N=1 D=3
Test 389 ok  op=100 M=4 K=3 N=2 D=4
Test 390 ok  op=001 M=1 K=1 N=4 D=4
Test 391 ok  op=100 M=3 K=4 N=3 D=2
Test 392 ok  op=010 M=1 K=2 N=1 D=4
Test 393 ok  op=000 M=4 K=4 N=2 D=4
Test 394 ok  op=101 M=1 K=1 N=3 D=3
Test 395 ok  op=010 M=3 K=2 N=4 D=4
Test 396 ok  op=001 M=4 K=4 N=1 D=3
Test 397 ok  op=101 M=1 K=3 N=4 D=4
Test 398 ok  op=000 M=3 K=4 N=4 D=4
Test 399 ok  op=001 M=1 K=1 N=2 D=3
Test 400 ok  op=101 M=2 K=4 N=1 D=4
Test 401 ok  op=001 M=1 K=1 N=2 D=4
Test 402 ok  op=010 M=3 K=4 N=4 D=2
Test 403 ok  op=000 M=3 K=4 N=1 D=4
Test 404 ok  op=001 M=4 K=1 N=2 D=2
Test 405 ok  op=000 M=1 K=1 N=1 D=4
Test 406 ok  op=100 M=2 K=2 N=2 D=2
Test 407 ok  op=011 M=3 K=3 N=2 D=4
Test 408 ok  op=100 M=3 K=2 N=3 D=2
Test 409 ok  op=101 M=4 K=1 N=2 D=4
Test 410 ok  op=100 M=1 K=2 N=1 D=4
Test 411 ok  op=011 M=4 K=4 N=4 D=3
Test 412 ok  op=101 M=3 K=2 N=3 D=2
Test 413 ok  op=000 M=2 K=2 N=2 D=2

*** ALL 414 TESTS PASSED ***

$finish called at time : 100990435 ns : File "C:/Users/kpcha/Desktop/College/DSD/Ver2_6/Ver2_6.srcs/sim_1/new/tb_uart.v" Line 610
